Eric Ekholm - Writing Window Functions
…
library(RcppRoll)

Next, I’m going to set up a minimal tibble to use for calculations. This will have an day column and a val column. The val column is the one I’m going to be doing calculations on, and the day column is going to serve as an index for the rolling average.

set.seed(0408)
df <- tibble(
  day = c(1:250),
  val = rnorm(250, mean = 5, sd = 1)
)

df

## # A tibble: 250 x 2
##      day   val
##    <int> <dbl>
##  1     1  2.64
##  2     2  5.30
##  3     3  4.29
##  4     4  5.76
##  5     5  3.75
##  6     6  4.89
##  7     7  4.50
##  8     8  3.84
##  9     9  4.74
## 10    10  6.41
## # ... with 240 more rows
…
## [1] 250

length(test_pad2)

## [1] 250

Step 4: Use Functions to Add Columns to Data

Now that we have a function that reliably outputs a vector the same length as the columns in our dataframe, we can use it in conjunction with other tidyverse operations to add columns to our dataframe.

df %>%
  mutate(roll_avg = ee_roll_func_padded(val, window = 8, fn = mean))

## # A tibble: 250 x 3
##      day   val roll_avg
##    <int> <dbl>    <dbl>
##  1     1  2.64    NA   
##  2     2  5.30    NA   
##  3     3  4.29    NA   
##  4     4  5.76    NA   
##  5     5  3.75    NA   
##  6     6  4.89    NA   
##  7     7  4.50    NA   
##  8     8  3.84     4.37
##  9     9  4.74     4.63
## 10    10  6.41     4.77
## # ... with 240 more rows
…
## The following object is masked from 'package:dplyr':
## 
##     collapse

params <- tibble(
  names = c("roll_avg", "roll_sd", "roll_min", "roll_max"),
  fn = lst(mean, sd, min, max)
)

params %>%
  pmap_dfc(~df %>%
             transmute("{.x}" := ee_roll_func_padded(val, window = 8, fn = .y))) %>%
  bind_cols(df, .)

## # A tibble: 250 x 6
##      day   val roll_avg roll_sd roll_min roll_max
##    <int> <dbl>    <dbl>   <dbl>    <dbl>    <dbl>
##  1     1  2.64    NA     NA        NA       NA   
##  2     2  5.30    NA     NA        NA       NA   
##  3     3  4.29    NA     NA        NA       NA   
##  4     4  5.76    NA     NA        NA       NA   
##  5     5  3.75    NA     NA        NA       NA   
##  6     6  4.89    NA     NA        NA       NA   
##  7     7  4.50    NA     NA        NA       NA   
##  8     8  3.84     4.37   0.982     2.64     5.76
##  9     9  4.74     4.63   0.691     3.75     5.76
## 10    10  6.41     4.77   0.918     3.75     6.41
## # ... with 240 more rows
…
